"id","title","description","availability","google_product_category","condition","brand","color","image_link","link","Mpn","Price","Product_type","Shipping(Country:Price)","Adwords_labels","Sku"
"1","Oki 70026 Toner 70026 schwarz Sparset 4x","Günstig Toner schwarz Sparset 4x. Kaufen Sie Alternativ Oki Patronen 70026 für Oki C 9600, Oki C 9600 DN, Oki C 9600 HDN, Oki C 9600 Hdtn, Oki C 9600 N, Oki C 9600 XF, Oki C 9600 XF PRO, Oki C 9600 XF PRO Lite, Oki C 9650 DN, Oki C 9650 Express, Oki C 9650 HDN, Oki C 9650 Hdtn, Oki C 9650 N, Oki C 9800, Oki C 9800 GA, Oki C 9800 HDN, Oki C 9800 Hdtn, Oki C 9800 MFP, Oki C 9850 MFP, Oki C 9800 HN, Oki C 9850 HN, Oki C 9650 HN, Oki C 9850 Hdtn","In stock","Elektronik > Drucker-, Kopierer-, Scanner- & Faxzubehör > Druckerzubehör > Drucker-Verbrauchsmaterial > Toner- & Inkjet-Kartuschen","new","Oki","schwarz","http://www.druckerpatronen.de/products_images/dummies/dummie_big_toner_schwarz.png","http://www.druckerpatronen.de/alternativ-toner-schwarz-32658sp4.html","","192.04","simple","DE:3.90 EUR","Artikel Toner","32658sp4"
"2","Oki 70026 Toner 70026 schwarz Doppelpack","Günstig Toner schwarz Doppelpack. Kaufen Sie Alternativ Oki Patronen 70026 für Oki C 9600, Oki C 9600 DN, Oki C 9600 HDN, Oki C 9600 Hdtn, Oki C 9600 N, Oki C 9600 XF, Oki C 9600 XF PRO, Oki C 9600 XF PRO Lite, Oki C 9650 DN, Oki C 9650 Express, Oki C 9650 HDN, Oki C 9650 Hdtn, Oki C 9650 N, Oki C 9800, Oki C 9800 GA, Oki C 9800 HDN, Oki C 9800 Hdtn, Oki C 9800 MFP, Oki C 9850 MFP, Oki C 9800 HN, Oki C 9850 HN, Oki C 9650 HN, Oki C 9850 Hdtn","In stock","Elektronik > Drucker-, Kopierer-, Scanner- & Faxzubehör > Druckerzubehör > Drucker-Verbrauchsmaterial > Toner- & Inkjet-Kartuschen","new","Oki","schwarz","http://www.druckerpatronen.de/products_images/dummies/dummie_big_toner_schwarz.png","http://www.druckerpatronen.de/alternativ-toner-schwarz-32658dp.html","","96.02","simple","DE:3.90 EUR","Artikel Toner","32658dp"
"3","Kyocera TK-2 Toner Original TK2 schwarz Sparset 10x","Günstig Toner schwarz Sparset 10x. Kaufen Sie Original Kyocera Patronen TK-2 für Kyocera Lasergraph 18, Kyocera Laser 1300, Kyocera MPS 3010, Kyocera 3012 T, Kyocera 3012, Kyocera 3012 C, Kyocera 3087 II, Kyocera 3019 II, Kyocera DRL 20, Kyocera FBP 11, Kyocera Laser 3000, Kyocera PL 3000, Kyocera F 3000, Kyocera F 3000 A, Kyocera F 3010, Kyocera F 3010 A, Kyocera RT 3010 M, Kyocera Datalaser 3000, Kyocera 370PG010","In stock","Elektronik > Drucker-, Kopierer-, Scanner- & Faxzubehör > Druckerzubehör > Drucker-Verbrauchsmaterial > Toner- & Inkjet-Kartuschen","new","Kyocera","schwarz","http://www.druckerpatronen.de/products_images/dummies/dummie_big_toner_schwarz.png","http://www.druckerpatronen.de/kyocera-mita-toner-schwarz-30944sp10.html","","39.9","simple","DE:3.90 EUR","Artikel Toner","30944sp10"
"4","Panasonic KX-P 457 Toner Original KXP457 schwarz Sparset 10x","Günstig Toner schwarz Sparset 10x. Kaufen Sie Original Panasonic Patronen KX-P 457 für Panasonic KX-P 6100, Panasonic KX-P 6150, Panasonic KX-PS 600","In stock","Elektronik > Drucker-, Kopierer-, Scanner- & Faxzubehör > Druckerzubehör > Drucker-Verbrauchsmaterial > Toner- & Inkjet-Kartuschen","new","Panasonic","schwarz","http://www.druckerpatronen.de/products_images/dummies/dummie_big_toner_schwarz.png","http://www.druckerpatronen.de/panasonic-toner-schwarz-38456sp10.html","5025232039029","39.9","simple","DE:3.90 EUR","Artikel Toner","38456sp10"
"5","Kyocera TK-2 Toner Original TK2 schwarz Sparset 5x","Günstig Toner schwarz Sparset 5x. Kaufen Sie Original Kyocera Patronen TK-2 für Kyocera Lasergraph 18, Kyocera Laser 1300, Kyocera MPS 3010, Kyocera 3012 T, Kyocera 3012, Kyocera 3012 C, Kyocera 3087 II, Kyocera 3019 II, Kyocera DRL 20, Kyocera FBP 11, Kyocera Laser 3000, Kyocera PL 3000, Kyocera F 3000, Kyocera F 3000 A, Kyocera F 3010, Kyocera F 3010 A, Kyocera RT 3010 M, Kyocera Datalaser 3000, Kyocera 370PG010","In stock","Elektronik > Drucker-, Kopierer-, Scanner- & Faxzubehör > Druckerzubehör > Drucker-Verbrauchsmaterial > Toner- & Inkjet-Kartuschen","new","Kyocera","schwarz","http://www.druckerpatronen.de/products_images/dummies/dummie_big_toner_schwarz.png","http://www.druckerpatronen.de/kyocera-mita-toner-schwarz-30944sp5.html","","20.95","simple","DE:3.90 EUR","Artikel Toner","30944sp5"
"6","Panasonic KX-P 457 Toner Original KXP457 schwarz Sparset 5x","Günstig Toner schwarz Sparset 5x. Kaufen Sie Original Panasonic Patronen KX-P 457 für Panasonic KX-P 6100, Panasonic KX-P 6150, Panasonic KX-PS 600","In stock","Elektronik > Drucker-, Kopierer-, Scanner- & Faxzubehör > Druckerzubehör > Drucker-Verbrauchsmaterial > Toner- & Inkjet-Kartuschen","new","Panasonic","schwarz","http://www.druckerpatronen.de/products_images/dummies/dummie_big_toner_schwarz.png","http://www.druckerpatronen.de/panasonic-toner-schwarz-38456sp5.html","5025232039029","20.95","simple","DE:3.90 EUR","Artikel Toner","38456sp5"
"7","Brother LC-127 XL BK Tinte Patronen LC127XLBK schwarz Sparset 4x","Günstig Druckerpatronen schwarz Sparset 4x. Kaufen Sie Alternativ Brother Patronen LC-127 XL BK für Brother MFC-J 4610 DW, Brother MFC-J 4410 DW, Brother MFC-J 4510 DW, Brother DCP-J 4110 W, Brother MFC-J 4710 DW, Brother DCP-J 4110 DW","In stock","Elektronik > Drucker-, Kopierer-, Scanner- & Faxzubehör > Druckerzubehör > Drucker-Verbrauchsmaterial > Toner- & Inkjet-Kartuschen","new","Brother","schwarz","http://www.druckerpatronen.de/products_images/dummies/dummie_big_druckerpatrone_schwarz.png","http://www.druckerpatronen.de/alternativ-druckerpatrone-schwarz-41463sp4.html","4977766713931","23.48","simple","DE:3.90 EUR","Artikel Druckerpatrone","41463sp4"
"8","Epson T1631 Tinte Patronen T1631 schwarz Sparset 4x","Günstig Druckerpatronen schwarz Sparset 4x. Kaufen Sie Alternativ Epson Patronen T1631 für Epson Workforce WF 2010, Epson Workforce WF 2510 WF, Epson Workforce WF 2520 NF, Epson Workforce WF 2530 WF, Epson Workforce WF 2540 WF","In stock","Elektronik > Drucker-, Kopierer-, Scanner- & Faxzubehör > Druckerzubehör > Drucker-Verbrauchsmaterial > Toner- & Inkjet-Kartuschen","new","Epson","schwarz","http://www.druckerpatronen.de/products_images/dummies/dummie_big_druckerpatrone_schwarz.png","http://www.druckerpatronen.de/alternativ-druckerpatrone-schwarz-xl-41458sp4.html","8715946518824","23.48","simple","DE:3.90 EUR","Artikel Druckerpatrone","41458sp4"
"9","Epson T2631 Tinte Patronen T2631 schwarz Sparset 4x","Günstig Druckerpatronen schwarz Sparset 4x. Kaufen Sie Alternativ Epson Patronen T2631 für Epson Expression Premium XP 600, Epson Expression Premium XP 700, Epson Expression Premium XP 800, Epson Expression Premium XP-605","In stock","Elektronik > Drucker-, Kopierer-, Scanner- & Faxzubehör > Druckerzubehör > Drucker-Verbrauchsmaterial > Toner- & Inkjet-Kartuschen","new","Epson","schwarz","http://www.druckerpatronen.de/products_images/dummies/dummie_big_druckerpatrone_schwarz.png","http://www.druckerpatronen.de/alternativ-druckerpatrone-schwarz-hell-xl-41454sp4.html","8715946519029","23.48","simple","DE:3.90 EUR","Artikel Druckerpatrone","41454sp4"
"10","Epson T2621 Tinte Patronen T2621 schwarz Sparset 4x","Günstig Druckerpatronen schwarz Sparset 4x. Kaufen Sie Alternativ Epson Patronen T2621 für Epson Expression Premium XP 600, Epson Expression Premium XP 700, Epson Expression Premium XP 800, Epson Expression Premium XP-605","In stock","Elektronik > Drucker-, Kopierer-, Scanner- & Faxzubehör > Druckerzubehör > Drucker-Verbrauchsmaterial > Toner- & Inkjet-Kartuschen","new","Epson","schwarz","http://www.druckerpatronen.de/products_images/dummies/dummie_big_druckerpatrone_schwarz.png","http://www.druckerpatronen.de/alternativ-druckerpatrone-schwarz-xl-41453sp4.html","8715946519005","27.4","simple","DE:3.90 EUR","Artikel Druckerpatrone","41453sp4"
"11","Epson 24XL Tinte Patronen 24XL schwarz Sparset 4x","Günstig Druckerpatronen schwarz Sparset 4x. Kaufen Sie Alternativ Epson Patronen 24XL für Epson Expression Photo XP 850, Epson Expression Photo XP 750","In stock","Elektronik > Drucker-, Kopierer-, Scanner- & Faxzubehör > Druckerzubehör > Drucker-Verbrauchsmaterial > Toner- & Inkjet-Kartuschen","new","Epson","schwarz","http://www.druckerpatronen.de/products_images/dummies/dummie_big_druckerpatrone_schwarz.png","http://www.druckerpatronen.de/alternativ-druckerpatrone-schwarz-41447sp4.html","8715946519241","27.4","simple","DE:3.90 EUR","Artikel Druckerpatrone","41447sp4"
"12","Canon CLI-551 BKXL Tinte Patronen CLI551BKXL schwarz Sparset 4x","Günstig Druckerpatronen schwarz Sparset 4x. Kaufen Sie Alternativ Canon Patronen CLI-551 BKXL für Canon Pixma MG 6350, Canon Pixma MG 5450, Canon Pixma IP 7250, Canon Pixma MX 925, Canon Pixma MX 725","In stock","Elektronik > Drucker-, Kopierer-, Scanner- & Faxzubehör > Druckerzubehör > Drucker-Verbrauchsmaterial > Toner- & Inkjet-Kartuschen","new","Canon","schwarz","http://www.druckerpatronen.de/products_images/dummies/dummie_big_druckerpatrone_schwarz.png","http://www.druckerpatronen.de/alternativ-druckerpatrone-schwarz-41435sp4.html","4960999904948","23.48","simple","DE:3.90 EUR","Artikel Druckerpatrone","41435sp4"
"13","Canon PGI-550 PGBKXL Tinte Patronen PGI550PGBKXL schwarz Sparset 4x","Günstig Druckerpatronen schwarz Sparset 4x. Kaufen Sie Alternativ Canon Patronen PGI-550 PGBKXL für Canon Pixma MG 6350, Canon Pixma MG 5450, Canon Pixma IP 7250, Canon Pixma MX 925, Canon Pixma MX 725","In stock","Elektronik > Drucker-, Kopierer-, Scanner- & Faxzubehör > Druckerzubehör > Drucker-Verbrauchsmaterial > Toner- & Inkjet-Kartuschen","new","Canon","schwarz","http://www.druckerpatronen.de/products_images/dummies/dummie_big_druckerpatrone_schwarz.png","http://www.druckerpatronen.de/alternativ-druckerpatrone-schwarz-41434sp4.html","4960999904504","23.48","simple","DE:3.90 EUR","Artikel Druckerpatrone","41434sp4"
"14","Xerox 106 R 02313 Toner Original 106R02313 schwarz Sparset 4x","Günstig Toner schwarz Sparset 4x. Kaufen Sie Original Xerox Patronen 106 R 02313 für Xerox WC 3325, Xerox Workcentre 3325","In stock","Elektronik > Drucker-, Kopierer-, Scanner- & Faxzubehör > Druckerzubehör > Drucker-Verbrauchsmaterial > Toner- & Inkjet-Kartuschen","new","Xerox","schwarz","http://www.druckerpatronen.de/products_images/dummies/dummie_big_toner_schwarz.png","http://www.druckerpatronen.de/xerox-toner-41431sp4.html","0095205623130","806.96","simple","DE:3.90 EUR","Artikel Toner","41431sp4"
"15","Utax 6625 10010 Toner Original 662510010 schwarz Sparset 4x","Günstig Toner schwarz Sparset 4x. Kaufen Sie Original Utax Patronen 6625 10010 für Utax 2550 CI,","In stock","Elektronik > Drucker-, Kopierer-, Scanner- & Faxzubehör > Druckerzubehör > Drucker-Verbrauchsmaterial > Toner- & Inkjet-Kartuschen","new","Utax","schwarz","http://www.druckerpatronen.de/products_images/dummies/dummie_big_toner_schwarz.png","http://www.druckerpatronen.de/utax-toner-schwarz-41423sp4.html","4053768181920","250.96","simple","DE:3.90 EUR","Artikel Toner","41423sp4"
"16","Utax 44360 10010 Toner Original 4436010010 schwarz Sparset 4x","Günstig Toner schwarz Sparset 4x. Kaufen Sie Original Utax Patronen 44360 10010 für Utax P 5030 DN, Utax P 6030 DN","In stock","Elektronik > Drucker-, Kopierer-, Scanner- & Faxzubehör > Druckerzubehör > Drucker-Verbrauchsmaterial > Toner- & Inkjet-Kartuschen","new","Utax","schwarz","http://www.druckerpatronen.de/products_images/dummies/dummie_big_toner_schwarz.png","http://www.druckerpatronen.de/utax-toner-41421sp4.html","","646.96","simple","DE:3.90 EUR","Artikel Toner","41421sp4"
"17","Utax 44345 10010 Toner Original 4434510010 schwarz Sparset 4x","Günstig Toner schwarz Sparset 4x. Kaufen Sie Original Utax Patronen 44345 10010 für Utax P 4530 DN,","In stock","Elektronik > Drucker-, Kopierer-, Scanner- & Faxzubehör > Druckerzubehör > Drucker-Verbrauchsmaterial > Toner- & Inkjet-Kartuschen","new","Utax","schwarz","http://www.druckerpatronen.de/products_images/dummies/dummie_big_toner_schwarz.png","http://www.druckerpatronen.de/utax-toner-41420sp4.html","","594.96","simple","DE:3.90 EUR","Artikel Toner","41420sp4"
"18","Utax 44340 10010 Toner Original 4434010010 schwarz Sparset 4x","Günstig Toner schwarz Sparset 4x. Kaufen Sie Original Utax Patronen 44340 10010 für Utax P 4030 DN, Utax P 4030 D","In stock","Elektronik > Drucker-, Kopierer-, Scanner- & Faxzubehör > Druckerzubehör > Drucker-Verbrauchsmaterial > Toner- & Inkjet-Kartuschen","new","Utax","schwarz","http://www.druckerpatronen.de/products_images/dummies/dummie_big_toner_schwarz.png","http://www.druckerpatronen.de/utax-toner-41419sp4.html","","502.96","simple","DE:3.90 EUR","Artikel Toner","41419sp4"
"19","Toshiba T-FC 26 SK Toner Original TFC26SK schwarz Sparset 4x","Günstig Toner schwarz Sparset 4x. Kaufen Sie Original Toshiba Patronen T-FC 26 SK für Toshiba E-Studio 262 CP, Toshiba E-Studio 222 CP, Toshiba E-Studio 222 CS, Toshiba E-Studio 263 CS","In stock","Elektronik > Drucker-, Kopierer-, Scanner- & Faxzubehör > Druckerzubehör > Drucker-Verbrauchsmaterial > Toner- & Inkjet-Kartuschen","new","Toshiba","schwarz","http://www.druckerpatronen.de/products_images/dummies/dummie_big_toner_schwarz.png","http://www.druckerpatronen.de/toshiba-toner-schwarz-41416sp4.html","4519232143974","170.96","simple","DE:3.90 EUR","Artikel Toner","41416sp4"
"20","Toshiba T 4030 Toner Original T4030 schwarz Sparset 4x","Günstig Toner schwarz Sparset 4x. Kaufen Sie Original Toshiba Patronen T 4030 für Toshiba E-Studio 382 P,","In stock","Elektronik > Drucker-, Kopierer-, Scanner- & Faxzubehör > Druckerzubehör > Drucker-Verbrauchsmaterial > Toner- & Inkjet-Kartuschen","new","Toshiba","schwarz","http://www.druckerpatronen.de/products_images/dummies/dummie_big_toner_schwarz.png","http://www.druckerpatronen.de/toshiba-toner-41415sp4.html","4053768179194","398.96","simple","DE:3.90 EUR","Artikel Toner","41415sp4"
"21","Toshiba T 8560 E Toner Original T8560E schwarz Sparset 4x","Günstig Toner schwarz Sparset 4x. Kaufen Sie Original Toshiba Patronen T 8560 E für Toshiba E-Studio 556, Toshiba E-Studio 656, Toshiba E-Studio 756, Toshiba E-Studio 856, Toshiba E-Studio 656 SE, Toshiba E-Studio 856 SE, Toshiba E-Studio 756 SE, Toshiba E-Studio 556 SE","In stock","Elektronik > Drucker-, Kopierer-, Scanner- & Faxzubehör > Druckerzubehör > Drucker-Verbrauchsmaterial > Toner- & Inkjet-Kartuschen","new","Toshiba","schwarz","http://www.druckerpatronen.de/products_images/dummies/dummie_big_toner_schwarz.png","http://www.druckerpatronen.de/toshiba-toner-41414sp4.html","4053768163506","330.96","simple","DE:3.90 EUR","Artikel Toner","41414sp4"
"22","Tally genicom 43223 Toner Original 43223 schwarz Sparset 4x","Günstig Toner schwarz Sparset 4x. Kaufen Sie Original Tally genicom Patronen 43223 für Tally genicom T 8206, Tally genicom T 8206 Plus","In stock","Elektronik > Drucker-, Kopierer-, Scanner- & Faxzubehör > Druckerzubehör > Drucker-Verbrauchsmaterial > Toner- & Inkjet-Kartuschen","new","Tally genicom","schwarz","http://www.druckerpatronen.de/products_images/dummies/dummie_big_toner_schwarz.png","http://www.druckerpatronen.de/tally-genicom-toner-schwarz-41406sp4.html","4010477432231","994.96","simple","DE:3.90 EUR","Artikel Toner","41406sp4"
"23","Samsung 204 Toner Original 204 schwarz Sparset 4x","Günstig Toner schwarz Sparset 4x. Kaufen Sie Original Samsung Patronen 204 für Samsung SL-M 3875 FW, Samsung SL-M 4075 FW, Samsung Proxpress M 4075 FW, Samsung Proxpress M 3825 D, Samsung SL-M 4025 ND, Samsung Proxpress M 4025 ND, Samsung SL-M 3825 D, Samsung Proxpress M 3875 FW, Samsung Proxpress M 3825 ND, Samsung SL-M 3825 ND, Samsung Proxpress M 3325 ND, Samsung SL-M 3325 ND, Samsung Proxpress M 3375 FD, Samsung SL-M 3375 FD","In stock","Elektronik > Drucker-, Kopierer-, Scanner- & Faxzubehör > Druckerzubehör > Drucker-Verbrauchsmaterial > Toner- & Inkjet-Kartuschen","new","Samsung","schwarz","http://www.druckerpatronen.de/products_images/originals/toner-schwarz-41396.jpg","http://www.druckerpatronen.de/samsung-toner-schwarz-41396sp4.html","8806085475786","314.96","simple","DE:3.90 EUR","Artikel Toner","41396sp4"
"24","Samsung 204L Toner Original 204L schwarz Sparset 4x","Günstig Toner schwarz Sparset 4x. Kaufen Sie Original Samsung Patronen 204L für Samsung SL-M 3875 FW, Samsung SL-M 4075 FW, Samsung Proxpress M 4075 FW, Samsung Proxpress M 3825 D, Samsung SL-M 4025 ND, Samsung Proxpress M 4025 ND, Samsung SL-M 3825 D, Samsung Proxpress M 3875 FW, Samsung Proxpress M 3825 ND, Samsung SL-M 3825 ND, Samsung Proxpress M 3325 ND, Samsung SL-M 3325 ND, Samsung Proxpress M 3375 FD, Samsung SL-M 3375 FD","In stock","Elektronik > Drucker-, Kopierer-, Scanner- & Faxzubehör > Druckerzubehör > Drucker-Verbrauchsmaterial > Toner- & Inkjet-Kartuschen","new","Samsung","schwarz","http://www.druckerpatronen.de/products_images/originals/toner-schwarz-41395.jpg","http://www.druckerpatronen.de/samsung-toner-schwarz-41395sp4.html","8806085478404","470.96","simple","DE:3.90 EUR","Artikel Toner","41395sp4"
"25","Samsung 204E Toner Original 204E schwarz Sparset 4x","Günstig Toner schwarz Sparset 4x. Kaufen Sie Original Samsung Patronen 204E für Samsung SL-M 3875 FW, Samsung SL-M 4075 FW, Samsung Proxpress M 4075 FW, Samsung Proxpress M 3825 D, Samsung SL-M 4025 ND, Samsung Proxpress M 4025 ND, Samsung SL-M 3825 D, Samsung Proxpress M 3875 FW, Samsung Proxpress M 3825 ND, Samsung SL-M 3825 ND","In stock","Elektronik > Drucker-, Kopierer-, Scanner- & Faxzubehör > Druckerzubehör > Drucker-Verbrauchsmaterial > Toner- & Inkjet-Kartuschen","new","Samsung","schwarz","http://www.druckerpatronen.de/products_images/originals/toner-schwarz-41394.jpg","http://www.druckerpatronen.de/samsung-toner-schwarz-41394sp4.html","8806085480094","614.96","simple","DE:3.90 EUR","Artikel Toner","41394sp4"
"26","Samsung 119 Toner Original 119 schwarz Sparset 4x","Günstig Toner schwarz Sparset 4x. Kaufen Sie Original Samsung Patronen 119 für Samsung ML 1610, Samsung ML 1615, Samsung ML 2010, Samsung ML 2010 P, Samsung ML 2010 R, Samsung ML 2510, Samsung ML 2570, Samsung ML 2571 N, Samsung SCX 4321, Samsung SCX 4521 F, Samsung ML 1610 R, Samsung ML 1620, Samsung ML 1625, Samsung ML 1625 R, Samsung ML 2010 L, Samsung ML 2010 PR, Samsung ML 2015, Samsung ML 2020, Samsung ML 2520, Samsung ML 2570 G, Samsung Fax Giotto Multifunzione, Samsung SCX 4521 FR","In stock","Elektronik > Drucker-, Kopierer-, Scanner- & Faxzubehör > Druckerzubehör > Drucker-Verbrauchsmaterial > Toner- & Inkjet-Kartuschen","new","Samsung","schwarz","http://www.druckerpatronen.de/products_images/dummies/dummie_big_toner_schwarz.png","http://www.druckerpatronen.de/samsung-toner-schwarz-41393sp4.html","8806085371156","254.96","simple","DE:3.90 EUR","Artikel Toner","41393sp4"
"27","Samsung 116 Toner Original 116 schwarz Sparset 4x","Günstig Toner schwarz Sparset 4x. Kaufen Sie Original Samsung Patronen 116 für Samsung SL-M 2625 FN, Samsung SL-M 2876, Samsung SL-M 2825 ND, Samsung SL-M 2626, Samsung SL-M 2826, Samsung SL-M 2875 ND, Samsung SL-M 2625 N, Samsung SL-M 2875 FW, Samsung SL-M 2625 D, Samsung Xpress M 2625 D, Samsung Xpress M 2675 FN, Samsung Xpress M 2825 ND, Samsung Xpress M 2875 ND, Samsung SL-M 2875 FD, Samsung SL-M 2625, Samsung Xpress M 2625 FN, Samsung Xpress M 2625 N, Samsung SL-M 2625 F, Samsung Xpress M 2626, Samsung Xpress M 2625 F, Samsung SL-M 2825 DW, Samsung Xpress M 2826, Samsung Xpress M 2875 FW, Samsung Xpress M 2876, Samsung Xpress M 2625, Samsung Xpress M 2875 FD, Samsung Xpress M 2825 DW","In stock","Elektronik > Drucker-, Kopierer-, Scanner- & Faxzubehör > Druckerzubehör > Drucker-Verbrauchsmaterial > Toner- & Inkjet-Kartuschen","new","Samsung","schwarz","http://www.druckerpatronen.de/products_images/originals/toner-41392.jpg","http://www.druckerpatronen.de/samsung-toner-41392sp4.html","8806085454743","130.96","simple","DE:3.90 EUR","Artikel Toner","41392sp4"
"28","Samsung 116L Toner Original 116L schwarz Sparset 4x","Günstig Toner schwarz Sparset 4x. Kaufen Sie Original Samsung Patronen 116L für Samsung SL-M 2625 FN, Samsung SL-M 2876, Samsung SL-M 2825 ND, Samsung SL-M 2626, Samsung SL-M 2826, Samsung SL-M 2875 ND, Samsung SL-M 2625 N, Samsung SL-M 2875 FW, Samsung SL-M 2625 D, Samsung Xpress M 2625 D, Samsung Xpress M 2675 FN, Samsung Xpress M 2825 ND, Samsung Xpress M 2875 ND, Samsung SL-M 2875 FD, Samsung SL-M 2625, Samsung Xpress M 2625 FN, Samsung Xpress M 2625 N, Samsung SL-M 2625 F, Samsung Xpress M 2626, Samsung Xpress M 2625 F, Samsung SL-M 2825 DW, Samsung Xpress M 2826, Samsung Xpress M 2875 FW, Samsung Xpress M 2876, Samsung Xpress M 2625, Samsung Xpress M 2875 FD, Samsung Xpress M 2825 DW","In stock","Elektronik > Drucker-, Kopierer-, Scanner- & Faxzubehör > Druckerzubehör > Drucker-Verbrauchsmaterial > Toner- & Inkjet-Kartuschen","new","Samsung","schwarz","http://www.druckerpatronen.de/products_images/originals/toner-41391.jpg","http://www.druckerpatronen.de/samsung-toner-41391sp4.html","8806085454767","234.96","simple","DE:3.90 EUR","Artikel Toner","41391sp4"
"29","Samsung K659 Toner Original K659 schwarz Sparset 4x","Günstig Toner schwarz Sparset 4x. Kaufen Sie Original Samsung Patronen K659 für Samsung Multixpress C 8640 ND, Samsung CLX-8640 ND, Samsung CLX-8650 ND, Samsung Multixpress C 8650 ND","In stock","Elektronik > Drucker-, Kopierer-, Scanner- & Faxzubehör > Druckerzubehör > Drucker-Verbrauchsmaterial > Toner- & Inkjet-Kartuschen","new","Samsung","schwarz","http://www.druckerpatronen.de/products_images/dummies/dummie_big_toner_schwarz.png","http://www.druckerpatronen.de/samsung-toner-schwarz-41383sp4.html","8806071892696","218.96","simple","DE:3.90 EUR","Artikel Toner","41383sp4"
"30","Ricoh TYPE 2501 E Toner Original TYPE2501E schwarz Sparset 4x","Günstig Toner schwarz Sparset 4x. Kaufen Sie Original Ricoh Patronen TYPE 2501 E für Ricoh MP 2501 SP, Ricoh Aficio MP 2001 L, Ricoh Aficio MP 2001, Ricoh Aficio MP 2501 SP, Ricoh Aficio MP 2501 L, Ricoh MP 2001, Ricoh MP 2001 L, Ricoh Aficio MP 2001 SP, Ricoh MP 2001 SP, Ricoh MP 2501 L","In stock","Elektronik > Drucker-, Kopierer-, Scanner- & Faxzubehör > Druckerzubehör > Drucker-Verbrauchsmaterial > Toner- & Inkjet-Kartuschen","new","Ricoh","schwarz","http://www.druckerpatronen.de/products_images/dummies/dummie_big_toner_schwarz.png","http://www.druckerpatronen.de/ricoh-toner-schwarz-41372sp4.html","4961311878862","74.96","simple","DE:3.90 EUR","Artikel Toner","41372sp4"
"31","Ricoh 821121 Toner Original 821121 schwarz Sparset 4x","Günstig Toner schwarz Sparset 4x. Kaufen Sie Original Ricoh Patronen 821121 für Ricoh SP C 830 DN, Ricoh Aficio SP C 831 DN, Ricoh Aficio SP C 830 DN, Ricoh SP C 831 DN","In stock","Elektronik > Drucker-, Kopierer-, Scanner- & Faxzubehör > Druckerzubehör > Drucker-Verbrauchsmaterial > Toner- & Inkjet-Kartuschen","new","Ricoh","schwarz","http://www.druckerpatronen.de/products_images/dummies/dummie_big_toner_schwarz.png","http://www.druckerpatronen.de/ricoh-toner-schwarz-41368sp4.html","4053768172140","246.96","simple","DE:3.90 EUR","Artikel Toner","41368sp4"
"32","Olivetti B1011 Toner Original B1011 schwarz Sparset 4x","Günstig Toner schwarz Sparset 4x. Kaufen Sie Original Olivetti Patronen B1011 für Olivetti D-Copia 3504 MF, Olivetti D-Copia 3503 MF","In stock","Elektronik > Drucker-, Kopierer-, Scanner- & Faxzubehör > Druckerzubehör > Drucker-Verbrauchsmaterial > Toner- & Inkjet-Kartuschen","new","Olivetti","schwarz","http://www.druckerpatronen.de/products_images/dummies/dummie_big_toner_schwarz.png","http://www.druckerpatronen.de/olivetti-toner-schwarz-41363sp4.html","","386.96","simple","DE:3.90 EUR","Artikel Toner","41363sp4"
"33","Olivetti B1009 Toner Original B1009 schwarz Sparset 4x","Günstig Toner schwarz Sparset 4x. Kaufen Sie Original Olivetti Patronen B1009 für Olivetti D-Copia 3003 MF, Olivetti D-Copia 3004 MF, Olivetti D-Copia 3003 MF Plus","In stock","Elektronik > Drucker-, Kopierer-, Scanner- & Faxzubehör > Druckerzubehör > Drucker-Verbrauchsmaterial > Toner- & Inkjet-Kartuschen","new","Olivetti","schwarz","http://www.druckerpatronen.de/products_images/dummies/dummie_big_toner_schwarz.png","http://www.druckerpatronen.de/olivetti-toner-schwarz-41362sp4.html","","338.96","simple","DE:3.90 EUR","Artikel Toner","41362sp4"
"34","Olivetti B0987 Toner Original B0987 schwarz Sparset 4x","Günstig Toner schwarz Sparset 4x. Kaufen Sie Original Olivetti Patronen B0987 für Olivetti D-Copia 4500 MF, Olivetti D-Copia 5500 MF, Olivetti D-Copia 3500 MF","In stock","Elektronik > Drucker-, Kopierer-, Scanner- & Faxzubehör > Druckerzubehör > Drucker-Verbrauchsmaterial > Toner- & Inkjet-Kartuschen","new","Olivetti","schwarz","http://www.druckerpatronen.de/products_images/dummies/dummie_big_toner_schwarz.png","http://www.druckerpatronen.de/olivetti-toner-41361sp4.html","","714.96","simple","DE:3.90 EUR","Artikel Toner","41361sp4"
"35","Olivetti B0963 Toner Original B0963 schwarz Sparset 4x","Günstig Toner schwarz Sparset 4x. Kaufen Sie Original Olivetti Patronen B0963 für Olivetti D-Copia 938 MF,","In stock","Elektronik > Drucker-, Kopierer-, Scanner- & Faxzubehör > Druckerzubehör > Drucker-Verbrauchsmaterial > Toner- & Inkjet-Kartuschen","new","Olivetti","schwarz","http://www.druckerpatronen.de/products_images/dummies/dummie_big_toner_schwarz.png","http://www.druckerpatronen.de/olivetti-toner-41360sp4.html","8020334316686","810.96","simple","DE:3.90 EUR","Artikel Toner","41360sp4"
"36","Olivetti B0961 Toner Original B0961 schwarz Sparset 4x","Günstig Toner schwarz Sparset 4x. Kaufen Sie Original Olivetti Patronen B0961 für Olivetti D-Copia 938 MF,","In stock","Elektronik > Drucker-, Kopierer-, Scanner- & Faxzubehör > Druckerzubehör > Drucker-Verbrauchsmaterial > Toner- & Inkjet-Kartuschen","new","Olivetti","schwarz","http://www.druckerpatronen.de/products_images/dummies/dummie_big_toner_schwarz.png","http://www.druckerpatronen.de/olivetti-toner-41359sp4.html","8020334316662","454.96","simple","DE:3.90 EUR","Artikel Toner","41359sp4"
"37","Olivetti B0958 Toner Original B0958 schwarz Sparset 4x","Günstig Toner schwarz Sparset 4x. Kaufen Sie Original Olivetti Patronen B0958 für Olivetti D-Copia 928 MF, Olivetti D-Copia 933 MF","In stock","Elektronik > Drucker-, Kopierer-, Scanner- & Faxzubehör > Druckerzubehör > Drucker-Verbrauchsmaterial > Toner- & Inkjet-Kartuschen","new","Olivetti","schwarz","http://www.druckerpatronen.de/products_images/dummies/dummie_big_toner_schwarz.png","http://www.druckerpatronen.de/olivetti-toner-41357sp4.html","8020334316624","838.96","simple","DE:3.90 EUR","Artikel Toner","41357sp4"
"38","Olivetti B0956 Toner Original B0956 schwarz Sparset 4x","Günstig Toner schwarz Sparset 4x. Kaufen Sie Original Olivetti Patronen B0956 für Olivetti D-Copia 928 MF, Olivetti D-Copia 933 MF","In stock","Elektronik > Drucker-, Kopierer-, Scanner- & Faxzubehör > Druckerzubehör > Drucker-Verbrauchsmaterial > Toner- & Inkjet-Kartuschen","new","Olivetti","schwarz","http://www.druckerpatronen.de/products_images/dummies/dummie_big_toner_schwarz.png","http://www.druckerpatronen.de/olivetti-toner-41356sp4.html","8020334316600","458.96","simple","DE:3.90 EUR","Artikel Toner","41356sp4"
"39","Olivetti B0924 Toner Original B0924 schwarz Sparset 4x","Günstig Toner schwarz Sparset 4x. Kaufen Sie Original Olivetti Patronen B0924 für Olivetti D-Color MF 923,","In stock","Elektronik > Drucker-, Kopierer-, Scanner- & Faxzubehör > Druckerzubehör > Drucker-Verbrauchsmaterial > Toner- & Inkjet-Kartuschen","new","Olivetti","schwarz","http://www.druckerpatronen.de/products_images/dummies/dummie_big_toner_schwarz.png","http://www.druckerpatronen.de/olivetti-toner-schwarz-41351sp4.html","8020334312091","682.96","simple","DE:3.90 EUR","Artikel Toner","41351sp4"
"40","Olivetti B0920 Toner Original B0920 schwarz Sparset 4x","Günstig Toner schwarz Sparset 4x. Kaufen Sie Original Olivetti Patronen B0920 für Olivetti D-Color MF 923, Olivetti D-Color MF 920","In stock","Elektronik > Drucker-, Kopierer-, Scanner- & Faxzubehör > Druckerzubehör > Drucker-Verbrauchsmaterial > Toner- & Inkjet-Kartuschen","new","Olivetti","schwarz","http://www.druckerpatronen.de/products_images/dummies/dummie_big_toner_schwarz.png","http://www.druckerpatronen.de/olivetti-toner-schwarz-41347sp4.html","8020334312053","402.96","simple","DE:3.90 EUR","Artikel Toner","41347sp4"
"41","Nrg TYPE 1350E Toner Original TYPE1350E schwarz Sparset 4x","Günstig Toner schwarz Sparset 4x. Kaufen Sie Original Nrg Patronen TYPE 1350E für Nrg PRO 906 EX, Nrg PRO 1356 EX, Nrg IS 3090, Nrg PRO 1106 EX, Nrg Infoprint PRO 1107 Micr, Nrg Infoprint PRO 1357 EX, Nrg PRO 907 EX, Nrg PRO 1107 EX, Nrg PRO 1357 EX, Nrg Infoprint PRO 1107 EX, Nrg Infoprint PRO 1107, Nrg Infoprint PRO 1357, Nrg Infoprint PRO 907 EX, Nrg Infoprint PRO 907, Nrg Infoprint PRO 907 Micr, Nrg Infoprint PRO 1357 Micr, Nrg LD 390 SP, Nrg IS 3110, Nrg LD 390, Nrg IS 3135, Nrg Docustation MP 1350, Nrg Docustation MP 1100, Nrg Docustation MP 9000, Nrg Docustation DSM 7135, Nrg Docustation DSM 7110, Nrg Docustation DSM 790, Nrg Aficio MP 1350, Nrg 9090, Nrg 9090 SP, Nrg Aficio MP 9001 SP, Nrg Aficio MP 9001, Nrg Aficio MP 9000, Nrg Aficio MP 1100, Nrg MP 1100, Nrg MP 1350, Nrg MP 9000","In stock","Elektronik > Drucker-, Kopierer-, Scanner- & Faxzubehör > Druckerzubehör > Drucker-Verbrauchsmaterial > Toner- & Inkjet-Kartuschen","new","Nrg","schwarz","http://www.druckerpatronen.de/products_images/dummies/dummie_big_toner_schwarz.png","http://www.druckerpatronen.de/nrg-toner-schwarz-41340sp4.html","4053768172058","382.96","simple","DE:3.90 EUR","Artikel Toner","41340sp4"
"42","Lexmark T650A21E Toner Original T650A21E schwarz Sparset 4x","Günstig Toner schwarz Sparset 4x. Kaufen Sie Original Lexmark Patronen T650A21E für Lexmark Optra T 650 DN, Lexmark Optra T 650 DTN, Lexmark Optra T 650 N, Lexmark Optra T 652 DN, Lexmark Optra T 652 DTN, Lexmark Optra T 652 N, Lexmark Optra T 654 DN, Lexmark Optra T 654 DTN, Lexmark Optra T 654 N, Lexmark Optra T 656 DNE, Lexmark T 650 DN, Lexmark T 650 DTN, Lexmark T 650 N, Lexmark T 652 DN, Lexmark T 652 DTN, Lexmark T 652 N, Lexmark T 654 DN, Lexmark T 654 DTN, Lexmark T 654 N, Lexmark T 656 DNE, Lexmark T 652, Lexmark Optra T 656, Lexmark T 650, Lexmark T 654, Lexmark T 656","In stock","Elektronik > Drucker-, Kopierer-, Scanner- & Faxzubehör > Druckerzubehör > Drucker-Verbrauchsmaterial > Toner- & Inkjet-Kartuschen","new","Lexmark","schwarz","http://www.druckerpatronen.de/products_images/originals/toner-schwarz-41339.jpg","http://www.druckerpatronen.de/lexmark-toner-schwarz-41339sp4.html","0734646064460","902.96","simple","DE:3.90 EUR","Artikel Toner","41339sp4"
"43","Lexmark 24B6035 Toner Original 24B6035 schwarz Sparset 4x","Günstig Toner schwarz Sparset 4x. Kaufen Sie Original Lexmark Patronen 24B6035 für Lexmark XM 1145, Lexmark M 1145","In stock","Elektronik > Drucker-, Kopierer-, Scanner- & Faxzubehör > Druckerzubehör > Drucker-Verbrauchsmaterial > Toner- & Inkjet-Kartuschen","new","Lexmark","schwarz","http://www.druckerpatronen.de/products_images/dummies/dummie_big_toner_schwarz.png","http://www.druckerpatronen.de/lexmark-toner-schwarz-41334sp4.html","0734646467421","1002.96","simple","DE:3.90 EUR","Artikel Toner","41334sp4"
"44","Lexmark 24B6015 Toner Original 24B6015 schwarz Sparset 4x","Günstig Toner schwarz Sparset 4x. Kaufen Sie Original Lexmark Patronen 24B6015 für Lexmark M 5155, Lexmark M 5170, Lexmark M 5163, Lexmark XM 5170, Lexmark XM 5163","In stock","Elektronik > Drucker-, Kopierer-, Scanner- & Faxzubehör > Druckerzubehör > Drucker-Verbrauchsmaterial > Toner- & Inkjet-Kartuschen","new","Lexmark","schwarz","http://www.druckerpatronen.de/products_images/dummies/dummie_big_toner_schwarz.png","http://www.druckerpatronen.de/lexmark-toner-schwarz-41332sp4.html","0734646467384","1314.96","simple","DE:3.90 EUR","Artikel Toner","41332sp4"
"45","Lexmark 200 XLA Tinte Patronen Original 200XLA schwarz Sparset 4x","Günstig Druckerpatronen schwarz Sparset 4x. Kaufen Sie Original Lexmark Patronen 200 XLA für Lexmark Officeedge PRO 4000 C, Lexmark Officeedge PRO 5500, Lexmark Officeedge PRO 5500 T, Lexmark Officeedge PRO 4000","In stock","Elektronik > Drucker-, Kopierer-, Scanner- & Faxzubehör > Druckerzubehör > Drucker-Verbrauchsmaterial > Toner- & Inkjet-Kartuschen","new","Lexmark","schwarz","http://www.druckerpatronen.de/products_images/originals/druckerpatrone-schwarz-41331.jpg","http://www.druckerpatronen.de/lexmark-druckerpatrone-schwarz-41331sp4.html","0734646287388","192.04","simple","DE:3.90 EUR","Artikel Druckerpatrone","41331sp4"
"46","Konica minolta 950-183 Toner Original 950183 schwarz Sparset 4x","Günstig Toner schwarz Sparset 4x. Kaufen Sie Original Konica minolta Patronen 950-183 für Konica minolta 7812, Konica minolta 7812 N, Konica minolta 7820","In stock","Elektronik > Drucker-, Kopierer-, Scanner- & Faxzubehör > Druckerzubehör > Drucker-Verbrauchsmaterial > Toner- & Inkjet-Kartuschen","new","Konica minolta","schwarz","http://www.druckerpatronen.de/products_images/dummies/dummie_big_toner_schwarz.png","http://www.druckerpatronen.de/konica-minolta-toner-schwarz-41328sp4.html","5031713018599","450.96","simple","DE:3.90 EUR","Artikel Toner","41328sp4"
"47","Kyocera 37058010 Toner Original 37058010 schwarz Sparset 4x","Günstig Toner schwarz Sparset 4x. Kaufen Sie Original Kyocera Patronen 37058010 für Kyocera RC 2030, Kyocera Alpha 1000, Kyocera RC 2325, Kyocera 2425 Z, Kyocera 2430, Kyocera 2430 Z, Kyocera Copy 310, Kyocera DC 2556, Kyocera 3530, Kyocera SFT Z 130, Kyocera Omega 2510 Z, Kyocera Omega 3010, Kyocera Omega 3010 Z, Kyocera 8230 Z, Kyocera Officecopy 2030, Kyocera 8025 Z, Kyocera 2170, Kyocera FP 1000, Kyocera DC 2557, Kyocera DC 3055, Kyocera C 264, Kyocera 8225 Z, Kyocera TA 2525, Kyocera C 294, Kyocera TA 2030, Kyocera 9025, Kyocera SFT 130, Kyocera RL 1230 M, Kyocera 37058010","In stock","Elektronik > Drucker-, Kopierer-, Scanner- & Faxzubehör > Druckerzubehör > Drucker-Verbrauchsmaterial > Toner- & Inkjet-Kartuschen","new","Kyocera","schwarz","http://www.druckerpatronen.de/products_images/dummies/dummie_big_toner_schwarz.png","http://www.druckerpatronen.de/kyocera-mita-toner-schwarz-41323sp4.html","","102.96","simple","DE:3.90 EUR","Artikel Toner","41323sp4"
"48","HP 970XL Tinte Patronen Original HP 970XL schwarz Sparset 4x","Günstig Druckerpatronen schwarz Sparset 4x. OfficeJet Pro Kaufen Sie Original HP Patronen 970XL für HP OfficeJet Pro X 551 DW, HP Officejet PRO X 451 DW, HP Officejet PRO X 576 DW, HP Officejet PRO X 476 DW, HP Officejet PRO X 476 DN, HP Officejet PRO X 451 DN","In stock","Elektronik > Drucker-, Kopierer-, Scanner- & Faxzubehör > Druckerzubehör > Drucker-Verbrauchsmaterial > Toner- & Inkjet-Kartuschen","new","HP","schwarz","http://www.druckerpatronen.de/products_images/dummies/dummie_big_druckerpatrone_schwarz.png","http://www.druckerpatronen.de/hp-druckerpatrone-schwarz-41307sp4.html","0886112877361","407.64","simple","DE:3.90 EUR","Artikel Druckerpatrone","41307sp4"
"49","HP 970 Tinte Patronen Original HP 970 schwarz Sparset 4x","Günstig Druckerpatronen schwarz Sparset 4x. OfficeJet Pro Kaufen Sie Original HP Patronen 970 für HP OfficeJet Pro X 551 DW, HP Officejet PRO X 451 DW, HP Officejet PRO X 576 DW, HP Officejet PRO X 476 DW, HP Officejet PRO X 476 DN, HP Officejet PRO X 451 DN","In stock","Elektronik > Drucker-, Kopierer-, Scanner- & Faxzubehör > Druckerzubehör > Drucker-Verbrauchsmaterial > Toner- & Inkjet-Kartuschen","new","HP","schwarz","http://www.druckerpatronen.de/products_images/dummies/dummie_big_druckerpatrone_schwarz.png","http://www.druckerpatronen.de/hp-druckerpatrone-schwarz-41303sp4.html","0886112877286","262.6","simple","DE:3.90 EUR","Artikel Druckerpatrone","41303sp4"
"50","HP 771C Tinte Patronen Original HP 771C schwarz Sparset 4x","Günstig Druckerpatronen schwarz Sparset 4x. DesignJet Z Kaufen Sie Original HP Patronen 771C für HP DesignJet Z 6200 42 Inch, HP Designjet Z 6200 60 Inch, HP Designjet Z 6200, HP CE 018 A","In stock","Elektronik > Drucker-, Kopierer-, Scanner- & Faxzubehör > Druckerzubehör > Drucker-Verbrauchsmaterial > Toner- & Inkjet-Kartuschen","new","HP","schwarz","http://www.druckerpatronen.de/products_images/originals/druckerpatrone-schwarz-hell-41298.jpg","http://www.druckerpatronen.de/hp-druckerpatrone-schwarz-hell-41298sp4.html","0887111301307","2524.44","simple","DE:3.90 EUR","Artikel Druckerpatrone","41298sp4"
"51","HP 771C Tinte Patronen Original HP 771C schwarz Sparset 4x","Günstig Druckerpatronen schwarz Sparset 4x. DesignJet Z Kaufen Sie Original HP Patronen 771C für HP DesignJet Z 6200 42 Inch, HP Designjet Z 6200 60 Inch, HP Designjet Z 6200, HP CE 020 A","In stock","Elektronik > Drucker-, Kopierer-, Scanner- & Faxzubehör > Druckerzubehör > Drucker-Verbrauchsmaterial > Toner- & Inkjet-Kartuschen","new","HP","schwarz","http://www.druckerpatronen.de/products_images/originals/druckerpatrone-schwarz-matt-41292.jpg","http://www.druckerpatronen.de/hp-druckerpatrone-schwarz-matt-41292sp4.html","0887111301246","2559.72","simple","DE:3.90 EUR","Artikel Druckerpatrone","41292sp4"
"52","HP 771C Tinte Patronen Original HP 771C schwarz Sparset 4x","Günstig Druckerpatronen schwarz Sparset 4x. DesignJet Z Kaufen Sie Original HP Patronen 771C für HP DesignJet Z 6200 42 Inch, HP Designjet Z 6200 60 Inch, HP Designjet Z 6200, HP CH 644 A","In stock","Elektronik > Drucker-, Kopierer-, Scanner- & Faxzubehör > Druckerzubehör > Drucker-Verbrauchsmaterial > Toner- & Inkjet-Kartuschen","new","HP","schwarz","http://www.druckerpatronen.de/products_images/originals/druckerpatrone-schwarz-hell-41290.jpg","http://www.druckerpatronen.de/hp-druckerpatrone-schwarz-hell-41290sp4.html","0887111300584","960.4","simple","DE:3.90 EUR","Artikel Druckerpatrone","41290sp4"
"53","HP 771C Tinte Patronen Original HP 771C schwarz Sparset 4x","Günstig Druckerpatronen schwarz Sparset 4x. DesignJet Z Kaufen Sie Original HP Patronen 771C für HP DesignJet Z 6200 42 Inch, HP Designjet Z 6200 60 Inch, HP Designjet Z 6200","In stock","Elektronik > Drucker-, Kopierer-, Scanner- & Faxzubehör > Druckerzubehör > Drucker-Verbrauchsmaterial > Toner- & Inkjet-Kartuschen","new","HP","schwarz","http://www.druckerpatronen.de/products_images/originals/druckerpatrone-schwarz-matt-41284.jpg","http://www.druckerpatronen.de/hp-druckerpatrone-schwarz-matt-41284sp4.html","0887111300522","964.28","simple","DE:3.90 EUR","Artikel Druckerpatrone","41284sp4"
"54","Epson 699 Toner Original 699 schwarz Sparset 4x","Günstig Toner schwarz Sparset 4x. Kaufen Sie Original Epson Patronen 699 für Epson Workforce AL-M 400 DTN, Epson Workforce AL-M 400 DN","In stock","Elektronik > Drucker-, Kopierer-, Scanner- & Faxzubehör > Druckerzubehör > Drucker-Verbrauchsmaterial > Toner- & Inkjet-Kartuschen","new","Epson","schwarz","http://www.druckerpatronen.de/products_images/originals/toner-schwarz-41265.jpg","http://www.druckerpatronen.de/epson-toner-schwarz-41265sp4.html","8715946520506","966.96","simple","DE:3.90 EUR","Artikel Toner","41265sp4"
"55","Epson 698 Toner Original 698 schwarz Sparset 4x","Günstig Toner schwarz Sparset 4x. Kaufen Sie Original Epson Patronen 698 für Epson Workforce AL-M 400 DTN, Epson Workforce AL-M 400 DN","In stock","Elektronik > Drucker-, Kopierer-, Scanner- & Faxzubehör > Druckerzubehör > Drucker-Verbrauchsmaterial > Toner- & Inkjet-Kartuschen","new","Epson","schwarz","http://www.druckerpatronen.de/products_images/originals/toner-schwarz-41264.jpg","http://www.druckerpatronen.de/epson-toner-schwarz-41264sp4.html","8715946520490","830.96","simple","DE:3.90 EUR","Artikel Toner","41264sp4"
"56","Epson 697 Toner Original 697 schwarz Sparset 4x","Günstig Toner schwarz Sparset 4x. Kaufen Sie Original Epson Patronen 697 für Epson Workforce AL-M 400 DTN, Epson Workforce AL-M 400 DN","In stock","Elektronik > Drucker-, Kopierer-, Scanner- & Faxzubehör > Druckerzubehör > Drucker-Verbrauchsmaterial > Toner- & Inkjet-Kartuschen","new","Epson","schwarz","http://www.druckerpatronen.de/products_images/originals/toner-schwarz-41263.jpg","http://www.druckerpatronen.de/epson-toner-schwarz-41263sp4.html","8715946520483","1146.96","simple","DE:3.90 EUR","Artikel Toner","41263sp4"
"57","Epson 691 Toner Original 691 schwarz Sparset 4x","Günstig Toner schwarz Sparset 4x. Kaufen Sie Original Epson Patronen 691 für Epson Workforce AL-M 300 DT, Epson Workforce AL-M 300 DN, Epson Workforce AL-M 300 D, Epson Workforce AL-M 300 DTN","In stock","Elektronik > Drucker-, Kopierer-, Scanner- & Faxzubehör > Druckerzubehör > Drucker-Verbrauchsmaterial > Toner- & Inkjet-Kartuschen","new","Epson","schwarz","http://www.druckerpatronen.de/products_images/originals/toner-schwarz-41262.jpg","http://www.druckerpatronen.de/epson-toner-schwarz-41262sp4.html","8715946520865","706.96","simple","DE:3.90 EUR","Artikel Toner","41262sp4"
"58","Epson 690 Toner Original 690 schwarz Sparset 4x","Günstig Toner schwarz Sparset 4x. Kaufen Sie Original Epson Patronen 690 für Epson Workforce AL-M 300 DT, Epson Workforce AL-M 300 DN, Epson Workforce AL-M 300 D, Epson Workforce AL-M 300 DTN","In stock","Elektronik > Drucker-, Kopierer-, Scanner- & Faxzubehör > Druckerzubehör > Drucker-Verbrauchsmaterial > Toner- & Inkjet-Kartuschen","new","Epson","schwarz","http://www.druckerpatronen.de/products_images/originals/toner-schwarz-41261.jpg","http://www.druckerpatronen.de/epson-toner-schwarz-41261sp4.html","8715946520858","382.96","simple","DE:3.90 EUR","Artikel Toner","41261sp4"
"59","Epson 689 Toner Original 689 schwarz Sparset 4x","Günstig Toner schwarz Sparset 4x. Kaufen Sie Original Epson Patronen 689 für Epson Workforce AL-M 300 DT, Epson Workforce AL-M 300 DN, Epson Workforce AL-M 300 D, Epson Workforce AL-M 300 DTN","In stock","Elektronik > Drucker-, Kopierer-, Scanner- & Faxzubehör > Druckerzubehör > Drucker-Verbrauchsmaterial > Toner- & Inkjet-Kartuschen","new","Epson","schwarz","http://www.druckerpatronen.de/products_images/originals/toner-schwarz-41260.jpg","http://www.druckerpatronen.de/epson-toner-schwarz-41260sp4.html","8715946520841","850.96","simple","DE:3.90 EUR","Artikel Toner","41260sp4"
"60","Develop TN-118 Toner Original TN118 schwarz Sparset 4x","Günstig Toner schwarz Sparset 4x. Kaufen Sie Original Develop Patronen TN-118 für Develop Ineo 215,","In stock","Elektronik > Drucker-, Kopierer-, Scanner- & Faxzubehör > Druckerzubehör > Drucker-Verbrauchsmaterial > Toner- & Inkjet-Kartuschen","new","Develop","schwarz","http://www.druckerpatronen.de/products_images/dummies/dummie_big_toner_schwarz.png","http://www.druckerpatronen.de/develop-toner-schwarz-41255sp4.html","4053768179149","254.96","simple","DE:3.90 EUR","Artikel Toner","41255sp4"
"61","Develop TN-512 K Toner Original TN512K schwarz Sparset 4x","Günstig Toner schwarz Sparset 4x. Kaufen Sie Original Develop Patronen TN-512 K für Develop Ineo Plus 454, Develop Ineo Plus 554, Develop Ineo + 554, Develop Ineo + 454","In stock","Elektronik > Drucker-, Kopierer-, Scanner- & Faxzubehör > Druckerzubehör > Drucker-Verbrauchsmaterial > Toner- & Inkjet-Kartuschen","new","Develop","schwarz","http://www.druckerpatronen.de/products_images/dummies/dummie_big_toner_schwarz.png","http://www.druckerpatronen.de/develop-toner-schwarz-41251sp4.html","4053768179156","166.96","simple","DE:3.90 EUR","Artikel Toner","41251sp4"
"62","Develop TN-618 K Toner Original TN618K schwarz Sparset 4x","Günstig Toner schwarz Sparset 4x. Kaufen Sie Original Develop Patronen TN-618 K für Develop Ineo 652, Develop Ineo 602, Develop Ineo 552, Develop Ineo 502","In stock","Elektronik > Drucker-, Kopierer-, Scanner- & Faxzubehör > Druckerzubehör > Drucker-Verbrauchsmaterial > Toner- & Inkjet-Kartuschen","new","Develop","schwarz","http://www.druckerpatronen.de/products_images/dummies/dummie_big_toner_schwarz.png","http://www.druckerpatronen.de/develop-toner-schwarz-41248sp4.html","4053768150599","282.96","simple","DE:3.90 EUR","Artikel Toner","41248sp4"
"63","Dell 34H27 Toner Original 34H27 schwarz Sparset 4x","Günstig Toner schwarz Sparset 4x. Kaufen Sie Original Dell Patronen 34H27 für Dell B 3465 DNF,","In stock","Elektronik > Drucker-, Kopierer-, Scanner- & Faxzubehör > Druckerzubehör > Drucker-Verbrauchsmaterial > Toner- & Inkjet-Kartuschen","new","Dell","schwarz","http://www.druckerpatronen.de/products_images/originals/toner-41243.jpg","http://www.druckerpatronen.de/dell-toner-41243sp4.html","0884116092049","1210.96","simple","DE:3.90 EUR","Artikel Toner","41243sp4"
"64","Dell 1V7V7 Toner Original 1V7V7 schwarz Sparset 4x","Günstig Toner schwarz Sparset 4x. Kaufen Sie Original Dell Patronen 1V7V7 für Dell B 2360 D, Dell B 2360 DN, Dell B 3460 DN, Dell B 3465 DNF","In stock","Elektronik > Drucker-, Kopierer-, Scanner- & Faxzubehör > Druckerzubehör > Drucker-Verbrauchsmaterial > Toner- & Inkjet-Kartuschen","new","Dell","schwarz","http://www.druckerpatronen.de/products_images/originals/toner-41242.jpg","http://www.druckerpatronen.de/dell-toner-41242sp4.html","5397063212538","962.96","simple","DE:3.90 EUR","Artikel Toner","41242sp4"
"65","Dell X739N Tinte Patronen Original X739N schwarz Sparset 4x","Günstig Druckerpatronen schwarz Sparset 4x. Kaufen Sie Original Dell Patronen X739N für Dell V 313, Dell V 313 W, Dell P 513 W","In stock","Elektronik > Drucker-, Kopierer-, Scanner- & Faxzubehör > Druckerzubehör > Drucker-Verbrauchsmaterial > Toner- & Inkjet-Kartuschen","new","Dell","schwarz","http://www.druckerpatronen.de/products_images/originals/druckerpatrone-schwarz-41240.jpg","http://www.druckerpatronen.de/dell-druckerpatrone-schwarz-41240sp4.html","","121.48","simple","DE:3.90 EUR","Artikel Druckerpatrone","41240sp4"
"66","PGI-555 PGBKXXL Tinte Patronen Original PGI555PGBKXXL schwarz Sparset 4x","Günstig Druckerpatronen schwarz Sparset 4x. Kaufen Sie Original Canon Patronen PGI-555 PGBKXXL für Canon Pixma MX 925, Canon Pixma MX 725","In stock","Elektronik > Drucker-, Kopierer-, Scanner- & Faxzubehör > Druckerzubehör > Drucker-Verbrauchsmaterial > Toner- & Inkjet-Kartuschen","new","Canon","schwarz","http://www.druckerpatronen.de/products_images/dummies/dummie_big_druckerpatrone_schwarz.png","http://www.druckerpatronen.de/canon-druckerpatrone-schwarz-41238sp4.html","4960999965376","90.12","simple","DE:3.90 EUR","Artikel Druckerpatrone","41238sp4"
"67","Canon C-EXV 45 Toner Original CEXV45 schwarz Sparset 4x","Günstig Toner schwarz Sparset 4x. Kaufen Sie Original Canon Patronen C-EXV 45 für Canon Imagerunner Advance C 7280 I, Canon IR-C 7260 I, Canon Imagerunner C 7280 I, Canon Imagerunner C 7270 I, Canon Imagerunner C 7270, Canon Imagerunner C 7260 I, Canon Imagerunner Advance C 7270 I, Canon IR-C 7260, Canon Imagerunner Advance C 7270, Canon Imagerunner C 7260, Canon Imagerunner Advance C 7260, Canon IR-C 7280 I, Canon Imagerunner Advance C 7260 I, Canon IR-C 7270, Canon IR-C 7270 I","In stock","Elektronik > Drucker-, Kopierer-, Scanner- & Faxzubehör > Druckerzubehör > Drucker-Verbrauchsmaterial > Toner- & Inkjet-Kartuschen","new","Canon","schwarz","http://www.druckerpatronen.de/products_images/dummies/dummie_big_toner_schwarz.png","http://www.druckerpatronen.de/canon-toner-schwarz-41231sp4.html","4960999918822","534.96","simple","DE:3.90 EUR","Artikel Toner","41231sp4"
"68","Canon C-EXV 44 Toner Original CEXV44 schwarz Sparset 4x","Günstig Toner schwarz Sparset 4x. Kaufen Sie Original Canon Patronen C-EXV 44 für Canon IR-ADV C 9270 PRO, Canon Imagerunner Advance C 9280 PRO, Canon IR Advance C 9270 PRO, Canon Imagerunner Advance C 9270 PRO, Canon IR-ADV C 9280 PRO, Canon IR-C 9280, Canon IR Advance C 9280 PRO, Canon IR-C 9280 PRO","In stock","Elektronik > Drucker-, Kopierer-, Scanner- & Faxzubehör > Druckerzubehör > Drucker-Verbrauchsmaterial > Toner- & Inkjet-Kartuschen","new","Canon","schwarz","http://www.druckerpatronen.de/products_images/dummies/dummie_big_toner_schwarz.png","http://www.druckerpatronen.de/canon-toner-schwarz-41230sp4.html","4960999918808","550.96","simple","DE:3.90 EUR","Artikel Toner","41230sp4"
"69","Canon C-EXV 27 Toner Original CEXV27 schwarz Sparset 4x","Günstig Toner schwarz Sparset 4x. Kaufen Sie Original Canon Patronen C-EXV 27 für Canon Imagepress 1110 S, Canon Imagepress 1135, Canon Imagepress 1125, Canon Imagepress 1110, Canon Imagepress 1135 P, Canon Imagepress 1125 P, Canon Imagepress 1110 P","In stock","Elektronik > Drucker-, Kopierer-, Scanner- & Faxzubehör > Druckerzubehör > Drucker-Verbrauchsmaterial > Toner- & Inkjet-Kartuschen","new","Canon","schwarz","http://www.druckerpatronen.de/products_images/dummies/dummie_big_toner_schwarz.png","http://www.druckerpatronen.de/canon-toner-schwarz-41227sp4.html","","314.96","simple","DE:3.90 EUR","Artikel Toner","41227sp4"
"70","Canon 1371 A 003 Toner Original 1371A003 schwarz Sparset 4x","Günstig Toner schwarz Sparset 4x. Kaufen Sie Original Canon Patronen 1371 A 003 für Canon 2100, Canon GR 3020, Canon 3050, Canon 3020, Canon NP 6835 RDF, Canon 2050, Canon NP 4335, Canon NP 4835 S, Canon NP 4835 I, Canon NP 4835, Canon NP 4330, Canon 4000, Canon GR 3050","In stock","Elektronik > Drucker-, Kopierer-, Scanner- & Faxzubehör > Druckerzubehör > Drucker-Verbrauchsmaterial > Toner- & Inkjet-Kartuschen","new","Canon","schwarz","http://www.druckerpatronen.de/products_images/dummies/dummie_big_toner_schwarz.png","http://www.druckerpatronen.de/canon-toner-schwarz-41226sp4.html","","50.96","simple","DE:3.90 EUR","Artikel Toner","41226sp4"
"71","Canon C-EXV 14 Toner Original CEXV14 schwarz Sparset 4x","Günstig Toner schwarz Sparset 4x. Kaufen Sie Original Canon Patronen C-EXV 14 für Canon Imagerunner 2016, Canon Imagerunner 2016 I, Canon Imagerunner 2016 J, Canon Imagerunner 2018, Canon Imagerunner 2018 I, Canon Imagerunner 2020, Canon Imagerunner 2020 I, Canon Imagerunner 2022, Canon Imagerunner 2022 I, Canon Imagerunner 2025, Canon Imagerunner 2025 I, Canon Imagerunner 2030, Canon Imagerunner 2030 I, Canon Imagerunner 2318 L, Canon Imagerunner 2320, Canon IR 2016, Canon IR 2016 I, Canon IR 2016 J, Canon IR 2018, Canon IR 2018 I, Canon IR 2020, Canon IR 2020 I, Canon IR 2022, Canon IR 2022 I, Canon IR 2025, Canon IR 2025 I, Canon IR 2030, Canon IR 2030 I, Canon IR 2318 L, Canon IR 2320, Canon IR 2318, Canon Imagerunner 2318, Canon IR 2420, Canon Imagerunner 2420, Canon IR 2422, Canon Imagerunner 2422","In stock","Elektronik > Drucker-, Kopierer-, Scanner- & Faxzubehör > Druckerzubehör > Drucker-Verbrauchsmaterial > Toner- & Inkjet-Kartuschen","new","Canon","schwarz","http://www.druckerpatronen.de/products_images/originals/toner-schwarz-41225.jpg","http://www.druckerpatronen.de/canon-toner-schwarz-41225sp4.html","4960999966076","106.96","simple","DE:3.90 EUR","Artikel Toner","41225sp4"
"72","Brother TN-241 BK Toner Original TN241BK schwarz Sparset 4x","Günstig Toner schwarz Sparset 4x. Kaufen Sie Original Brother Patronen TN-241 BK für Brother DCP-9020 CDW, Brother HL-3150 CDW, Brother MFC-9330 CDW, Brother MFC-9340 CDW, Brother MFC-9140 CDN, Brother MFC-9130 CW, Brother HL-3170 CDW, Brother HL-3140 CW","In stock","Elektronik > Drucker-, Kopierer-, Scanner- & Faxzubehör > Druckerzubehör > Drucker-Verbrauchsmaterial > Toner- & Inkjet-Kartuschen","new","Brother","schwarz","http://www.druckerpatronen.de/products_images/dummies/dummie_big_toner_schwarz.png","http://www.druckerpatronen.de/brother-toner-schwarz-41216sp4.html","4977766718387","262.96","simple","DE:3.90 EUR","Artikel Toner","41216sp4"
"73","Xerox 106 R 02232 Toner 106R02232 schwarz Sparset 4x","Günstig Toner schwarz Sparset 4x. Kaufen Sie Alternativ Xerox Patronen 106 R 02232 für Xerox Phaser 6600 DNM, Xerox WC 6605 DNM, Xerox Phaser 6600 N, Xerox Workcentre 6605 DN, Xerox WC 6605 DN, Xerox Workcentre 6605 N, Xerox WC 6605 N, Xerox Workcentre 6605 DNM, Xerox Phaser 6600 DN","In stock","Elektronik > Drucker-, Kopierer-, Scanner- & Faxzubehör > Druckerzubehör > Drucker-Verbrauchsmaterial > Toner- & Inkjet-Kartuschen","new","Xerox","schwarz","http://www.druckerpatronen.de/products_images/dummies/dummie_big_toner_schwarz.png","http://www.druckerpatronen.de/alternativ-toner-schwarz-41205sp4.html","0095205963984","174.96","simple","DE:3.90 EUR","Artikel Toner","41205sp4"
"74","Xerox 106 R 01510 Toner 106R01510 schwarz Sparset 4x","Günstig Toner schwarz Sparset 4x. Kaufen Sie Alternativ Xerox Patronen 106 R 01510 für Xerox Phaser 6700 N, Xerox Phaser 6700 NM, Xerox Phaser 6700 DNM, Xerox Phaser 6700 DN, Xerox Phaser 6700 DTM, Xerox Phaser 6700 DXM, Xerox Phaser 6700 DX","In stock","Elektronik > Drucker-, Kopierer-, Scanner- & Faxzubehör > Druckerzubehör > Drucker-Verbrauchsmaterial > Toner- & Inkjet-Kartuschen","new","Xerox","schwarz","http://www.druckerpatronen.de/products_images/dummies/dummie_big_toner_schwarz.png","http://www.druckerpatronen.de/alternativ-toner-schwarz-41201sp4.html","0095205760934","310.96","simple","DE:3.90 EUR","Artikel Toner","41201sp4"
"75","Xerox 106 R 01506 Toner 106R01506 schwarz Sparset 4x","Günstig Toner schwarz Sparset 4x. Kaufen Sie Alternativ Xerox Patronen 106 R 01506 für Xerox Phaser 6700 N, Xerox Phaser 6700 NM, Xerox Phaser 6700 DNM, Xerox Phaser 6700 DN, Xerox Phaser 6700 DTM, Xerox Phaser 6700 DXM, Xerox Phaser 6700 DX, Xerox 106 R 01506","In stock","Elektronik > Drucker-, Kopierer-, Scanner- & Faxzubehör > Druckerzubehör > Drucker-Verbrauchsmaterial > Toner- & Inkjet-Kartuschen","new","Xerox","schwarz","http://www.druckerpatronen.de/products_images/dummies/dummie_big_toner_schwarz.png","http://www.druckerpatronen.de/alternativ-toner-schwarz-41197sp4.html","0095205760897","270.96","simple","DE:3.90 EUR","Artikel Toner","41197sp4"
"76","Xerox 106 R 01163 Toner 106R01163 schwarz Sparset 4x","Günstig Toner schwarz Sparset 4x. Kaufen Sie Alternativ Xerox Patronen 106 R 01163 für Xerox Phaser 7760 DN, Xerox Phaser 7760 DX, Xerox Phaser 7760 GX, Xerox Phaser 7760 V DN, Xerox Phaser 7760 V DX, Xerox Phaser 7760 V GX, Xerox Phaser 7760 NM, Xerox Phaser 7760 DNM, Xerox Phaser 7760 N","In stock","Elektronik > Drucker-, Kopierer-, Scanner- & Faxzubehör > Druckerzubehör > Drucker-Verbrauchsmaterial > Toner- & Inkjet-Kartuschen","new","Xerox","schwarz","http://www.druckerpatronen.de/products_images/dummies/dummie_big_toner_schwarz.png","http://www.druckerpatronen.de/alternativ-toner-schwarz-41193sp4.html","0095205224016","310.96","simple","DE:3.90 EUR","Artikel Toner","41193sp4"
"77","Xerox 106 R 00652 Toner 106R00652 schwarz Sparset 4x","Günstig Toner schwarz Sparset 4x. Kaufen Sie Alternativ Xerox Patronen 106 R 00652 für Xerox Phaser EX 7750, Xerox Phaser 7750, Xerox Phaser 7750 B, Xerox Phaser 7750 DN, Xerox Phaser 7750 DX, Xerox Phaser 7750 DXF, Xerox Phaser 7750 GX","In stock","Elektronik > Drucker-, Kopierer-, Scanner- & Faxzubehör > Druckerzubehör > Drucker-Verbrauchsmaterial > Toner- & Inkjet-Kartuschen","new","Xerox","schwarz","http://www.druckerpatronen.de/products_images/dummies/dummie_big_toner_schwarz.png","http://www.druckerpatronen.de/alternativ-toner-schwarz-41186sp4.html","0095205384833","310.96","simple","DE:3.90 EUR","Artikel Toner","41186sp4"
"78","Toshiba T 2320 E Toner T2320E schwarz Sparset 4x","Günstig Toner schwarz Sparset 4x. Kaufen Sie Alternativ Toshiba Patronen T 2320 E für Toshiba E-Studio 280 CP, Toshiba E-Studio 230 L, Toshiba E-Studio 230, Toshiba E-Studio 280","In stock","Elektronik > Drucker-, Kopierer-, Scanner- & Faxzubehör > Druckerzubehör > Drucker-Verbrauchsmaterial > Toner- & Inkjet-Kartuschen","new","Toshiba","schwarz","http://www.druckerpatronen.de/products_images/dummies/dummie_big_toner_schwarz.png","http://www.druckerpatronen.de/alternativ-toner-schwarz-41173sp4.html","4519232105958","142.96","simple","DE:3.90 EUR","Artikel Toner","41173sp4"
"79","Toshiba T 3520 E Toner T3520E schwarz Sparset 4x","Günstig Toner schwarz Sparset 4x. Kaufen Sie Alternativ Toshiba Patronen T 3520 E für Toshiba E-Studio 350, Toshiba E-Studio 352, Toshiba E-Studio 450, Toshiba E-Studio 452","In stock","Elektronik > Drucker-, Kopierer-, Scanner- & Faxzubehör > Druckerzubehör > Drucker-Verbrauchsmaterial > Toner- & Inkjet-Kartuschen","new","Toshiba","schwarz","http://www.druckerpatronen.de/products_images/dummies/dummie_big_toner_schwarz.png","http://www.druckerpatronen.de/alternativ-toner-schwarz-41172sp4.html","4250081507158","86.96","simple","DE:3.90 EUR","Artikel Toner","41172sp4"
"80","Toshiba T 2340 E Toner T2340E schwarz Sparset 4x","Günstig Toner schwarz Sparset 4x. Kaufen Sie Alternativ Toshiba Patronen T 2340 E für Toshiba E-Studio 282, Toshiba E-Studio 232","In stock","Elektronik > Drucker-, Kopierer-, Scanner- & Faxzubehör > Druckerzubehör > Drucker-Verbrauchsmaterial > Toner- & Inkjet-Kartuschen","new","Toshiba","schwarz","http://www.druckerpatronen.de/products_images/dummies/dummie_big_toner_schwarz.png","http://www.druckerpatronen.de/alternativ-toner-schwarz-41171sp4.html","4519232119221","146.96","simple","DE:3.90 EUR","Artikel Toner","41171sp4"
"81","Toshiba T 1640 EHC Toner T1640EHC schwarz Sparset 4x","Günstig Toner schwarz Sparset 4x. Kaufen Sie Alternativ Toshiba Patronen T 1640 EHC für Toshiba E-Studio 167 I, Toshiba E-Studio 207 I, Toshiba E-Studio 237 I, Toshiba E-Studio 166, Toshiba E-Studio 163, Toshiba E-Studio 203, Toshiba E-Studio 205, Toshiba E-Studio 167, Toshiba E-Studio 237, Toshiba E-Studio 165, Toshiba E-Studio 206, Toshiba E-Studio 207, Toshiba 6AJ00000024","In stock","Elektronik > Drucker-, Kopierer-, Scanner- & Faxzubehör > Druckerzubehör > Drucker-Verbrauchsmaterial > Toner- & Inkjet-Kartuschen","new","Toshiba","schwarz","http://www.druckerpatronen.de/products_images/dummies/dummie_big_toner_schwarz.png","http://www.druckerpatronen.de/alternativ-toner-schwarz-41170sp4.html","4053768163452","130.96","simple","DE:3.90 EUR","Artikel Toner","41170sp4"
"82","Sharp SF-235 LT 1 Toner SF235LT1 schwarz Sparset 4x","Günstig Toner schwarz Sparset 4x. Kaufen Sie Alternativ Sharp Patronen SF-235 LT 1 für Sharp SF 2035 G, Sharp SF 2035, Sharp SF-235 LT 1","In stock","Elektronik > Drucker-, Kopierer-, Scanner- & Faxzubehör > Druckerzubehör > Drucker-Verbrauchsmaterial > Toner- & Inkjet-Kartuschen","new","Sharp","schwarz","http://www.druckerpatronen.de/products_images/dummies/dummie_big_toner_schwarz.png","http://www.druckerpatronen.de/alternativ-toner-schwarz-41168sp4.html","4974019051772","66.96","simple","DE:3.90 EUR","Artikel Toner","41168sp4"
"83","Sharp MX-31 GTBA Toner MX31GTBA schwarz Sparset 4x","Günstig Toner schwarz Sparset 4x. Kaufen Sie Alternativ Sharp Patronen MX-31 GTBA für Sharp MX-2600 N, Sharp MX-3100 N, Sharp MX-2301 N, Sharp MX-31 GUSA","In stock","Elektronik > Drucker-, Kopierer-, Scanner- & Faxzubehör > Druckerzubehör > Drucker-Verbrauchsmaterial > Toner- & Inkjet-Kartuschen","new","Sharp","schwarz","http://www.druckerpatronen.de/products_images/dummies/dummie_big_toner_schwarz.png","http://www.druckerpatronen.de/alternativ-toner-schwarz-41160sp4.html","4974019591483","214.96","simple","DE:3.90 EUR","Artikel Toner","41160sp4"
"84","Sharp MX-27 GTBA Toner MX27GTBA schwarz Sparset 4x","Günstig Toner schwarz Sparset 4x. Kaufen Sie Alternativ Sharp Patronen MX-27 GTBA für Sharp MX-2300 N, Sharp MX-2700 N, Sharp MX-27 GTBA","In stock","Elektronik > Drucker-, Kopierer-, Scanner- & Faxzubehör > Druckerzubehör > Drucker-Verbrauchsmaterial > Toner- & Inkjet-Kartuschen","new","Sharp","schwarz","http://www.druckerpatronen.de/products_images/dummies/dummie_big_toner_schwarz.png","http://www.druckerpatronen.de/alternativ-toner-schwarz-41156sp4.html","4974019492551","238.96","simple","DE:3.90 EUR","Artikel Toner","41156sp4"
"85","Samsung K506 Toner K506 schwarz Sparset 4x","Günstig Toner schwarz Sparset 4x. Kaufen Sie Alternativ Samsung Patronen K506 für Samsung CLX 6260 ND, Samsung CLX 6260 FW, Samsung CLX 6260 FR, Samsung CLX 6260 FD, Samsung CLP 680 ND, Samsung CLP 680, Samsung CLP 680 DW","In stock","Elektronik > Drucker-, Kopierer-, Scanner- & Faxzubehör > Druckerzubehör > Drucker-Verbrauchsmaterial > Toner- & Inkjet-Kartuschen","new","Samsung","schwarz","http://www.druckerpatronen.de/products_images/dummies/dummie_big_toner_schwarz.png","http://www.druckerpatronen.de/alternativ-toner-schwarz-41149sp4.html","8806085031890","142.96","simple","DE:3.90 EUR","Artikel Toner","41149sp4"
"86","Samsung K504 Toner K504 schwarz Sparset 4x","Günstig Toner schwarz Sparset 4x. Kaufen Sie Alternativ Samsung Patronen K504 für Samsung CLP 415 NW, Samsung CLP 415 N, Samsung CLX 4195 FW, Samsung CLX 4195 N, Samsung CLX 4195 FN","In stock","Elektronik > Drucker-, Kopierer-, Scanner- & Faxzubehör > Druckerzubehör > Drucker-Verbrauchsmaterial > Toner- & Inkjet-Kartuschen","new","Samsung","schwarz","http://www.druckerpatronen.de/products_images/dummies/dummie_big_toner_schwarz.png","http://www.druckerpatronen.de/alternativ-toner-schwarz-41148sp4.html","8806085031944","134.96","simple","DE:3.90 EUR","Artikel Toner","41148sp4"
"87","Sharp AR-455 LT Toner AR455LT schwarz Sparset 4x","Günstig Toner schwarz Sparset 4x. Kaufen Sie Alternativ Sharp Patronen AR-455 LT für Sharp D-Copia 4501, Sharp AR-M 455 N, Sharp AR-M 451 N, Sharp AR-M 351 N, Sharp AR-M 355 N, Sharp AR-M 355 U, Sharp DM 3551, Sharp D-Copia 3501, Sharp DM 4551, Sharp AR-M 455 U, Sharp MX-M 350, Sharp MX-M 450, Sharp D-Copia 3501 MF, Sharp MX-M 450 N, Sharp MX-M 450 U, Sharp AR-M 351 U, Sharp AR-M 451, Sharp AR-M 351, Sharp D-Copia 4501 MF, Sharp AR-M 451 U, Sharp MX-M 350 N, Sharp MX-M 350 U","In stock","Elektronik > Drucker-, Kopierer-, Scanner- & Faxzubehör > Druckerzubehör > Drucker-Verbrauchsmaterial > Toner- & Inkjet-Kartuschen","new","Sharp","schwarz","http://www.druckerpatronen.de/products_images/dummies/dummie_big_toner_schwarz.png","http://www.druckerpatronen.de/alternativ-toner-schwarz-41145sp4.html","4974019466279","258.96","simple","DE:3.90 EUR","Artikel Toner","41145sp4"
"88","Sharp AR-270 LT Toner AR270LT schwarz Sparset 4x","Günstig Toner schwarz Sparset 4x. Kaufen Sie Alternativ Sharp Patronen AR-270 LT für Sharp AR 276, Sharp AR 236, Sharp AR-M 208 D, Sharp AR-M 208 S, Sharp IM 2715, Sharp AR-M 208 N, Sharp IM 2315, Sharp AR 215, Sharp AR-M 236, Sharp AR-M 276, Sharp AR-M 208, Sharp AR 275, Sharp AR-N 275, Sharp AR 5127, Sharp AR 235, Sharp AR 275 N, Sharp AR 215 G, Sharp AR-270 LT","In stock","Elektronik > Drucker-, Kopierer-, Scanner- & Faxzubehör > Druckerzubehör > Drucker-Verbrauchsmaterial > Toner- & Inkjet-Kartuschen","new","Sharp","schwarz","http://www.druckerpatronen.de/products_images/dummies/dummie_big_toner_schwarz.png","http://www.druckerpatronen.de/alternativ-toner-schwarz-41143sp4.html","4974019056760","206.96","simple","DE:3.90 EUR","Artikel Toner","41143sp4"
"89","Sharp AR-202 T Toner AR202T schwarz Sparset 4x","Günstig Toner schwarz Sparset 4x. Kaufen Sie Alternativ Sharp Patronen AR-202 T für Sharp AR-M 160, Sharp AR-M 205, Sharp AR 162, Sharp AR 162 S, Sharp AR 163, Sharp AR 164, Sharp AR 201, Sharp AR 206, Sharp AR 207, Sharp AR-M 207, Sharp AR-M 207 E, Sharp AR-M 165, Sharp AR-202 T","In stock","Elektronik > Drucker-, Kopierer-, Scanner- & Faxzubehör > Druckerzubehör > Drucker-Verbrauchsmaterial > Toner- & Inkjet-Kartuschen","new","Sharp","schwarz","http://www.druckerpatronen.de/products_images/dummies/dummie_big_toner_schwarz.png","http://www.druckerpatronen.de/alternativ-toner-schwarz-41142sp4.html","4974019057613","198.96","simple","DE:3.90 EUR","Artikel Toner","41142sp4"
"90","Sharp AR-168 LT Toner AR168LT schwarz Sparset 4x","Günstig Toner schwarz Sparset 4x. Kaufen Sie Alternativ Sharp Patronen AR-168 LT für Sharp AR 122, Sharp AR 122 E, Sharp AR 122 EN, Sharp AR 152, Sharp AR 152 EN, Sharp AR 153 E, Sharp AR 153 EN, Sharp AR 5012, Sharp AR 5415, Sharp AR-M 150, Sharp AR-M 155, Sharp AR-M 155 N, Sharp AR-M 150 N, Sharp AR-168 LT","In stock","Elektronik > Drucker-, Kopierer-, Scanner- & Faxzubehör > Druckerzubehör > Drucker-Verbrauchsmaterial > Toner- & Inkjet-Kartuschen","new","Sharp","schwarz","http://www.druckerpatronen.de/products_images/dummies/dummie_big_toner_schwarz.png","http://www.druckerpatronen.de/alternativ-toner-schwarz-41141sp4.html","4974019560427","134.96","simple","DE:3.90 EUR","Artikel Toner","41141sp4"
"91","Sharp AR-016 T Toner AR016T schwarz Sparset 4x","Günstig Toner schwarz Sparset 4x. Kaufen Sie Alternativ Sharp Patronen AR-016 T für Sharp AR 5320 E, Sharp AR 5015 N, Sharp AR 5320, Sharp AR 5020, Sharp AR 5015, Sharp AR 5316","In stock","Elektronik > Drucker-, Kopierer-, Scanner- & Faxzubehör > Druckerzubehör > Drucker-Verbrauchsmaterial > Toner- & Inkjet-Kartuschen","new","Sharp","schwarz","http://www.druckerpatronen.de/products_images/dummies/dummie_big_toner_schwarz.png","http://www.druckerpatronen.de/alternativ-toner-schwarz-41140sp4.html","4974019057644","230.96","simple","DE:3.90 EUR","Artikel Toner","41140sp4"
"92","Sharp AL-214 TD Toner AL214TD schwarz Sparset 4x","Günstig Toner schwarz Sparset 4x. Kaufen Sie Alternativ Sharp Patronen AL-214 TD für Sharp AL 2041, Sharp AL 2031, Sharp AL 2021, Sharp AL 2051, Sharp AL 2061, Sharp AL-214 TD","In stock","Elektronik > Drucker-, Kopierer-, Scanner- & Faxzubehör > Druckerzubehör > Drucker-Verbrauchsmaterial > Toner- & Inkjet-Kartuschen","new","Sharp","schwarz","http://www.druckerpatronen.de/products_images/dummies/dummie_big_toner_schwarz.png","http://www.druckerpatronen.de/alternativ-toner-entwicklereinheit-41139sp4.html","4974019676241","258.96","simple","DE:3.90 EUR","Artikel Toner","41139sp4"
"93","Infotec DT3000BLK Toner DT3000BLK schwarz Sparset 4x","Günstig Toner schwarz Sparset 4x. Kaufen Sie Alternativ Infotec Patronen DT3000BLK für Infotec MP C 3000, Infotec MP C 3000 E 1, Infotec ISC 2525, Infotec ISC 2525 E, Infotec ISC 3030, Infotec DSC 525, Infotec DSC 530, Infotec MP C 2000, Infotec MP C 2500, Infotec MP C 2500 E 1, Infotec Aficio MP C 2000, Infotec Aficio MP C 2500, Infotec Aficio MP C 2500 E 1, Infotec Aficio MP C 3000, Infotec Aficio MP C 3000 E 1, Infotec ISC 2020, Infotec Aficio MP C 3000 AD","In stock","Elektronik > Drucker-, Kopierer-, Scanner- & Faxzubehör > Druckerzubehör > Drucker-Verbrauchsmaterial > Toner- & Inkjet-Kartuschen","new","Infotec","schwarz","http://www.druckerpatronen.de/products_images/dummies/dummie_big_toner_schwarz.png","http://www.druckerpatronen.de/alternativ-toner-schwarz-41137sp4.html","4053768161281","222.96","simple","DE:3.90 EUR","Artikel Toner","41137sp4"
"94","Nrg MPC4500B Toner MPC4500B schwarz Sparset 4x","Günstig Toner schwarz Sparset 4x. Kaufen Sie Alternativ Nrg Patronen MPC4500B für Nrg ISC 3535, Nrg ISC 3535 E 1, Nrg DSC 545, Nrg MP C 4500 E 1, Nrg MP C 3500 E 1, Nrg DSC 535, Nrg Aficio MP C 3500 AD, Nrg MP C 3500, Nrg MP C 4500, Nrg Aficio MP C 3500, Nrg Aficio MP C 4500, Nrg Aficio MP C 4500 E 1, Nrg Aficio MP C 4500 AD, Nrg Aficio MP C 3500 E 1, Nrg 888608","In stock","Elektronik > Drucker-, Kopierer-, Scanner- & Faxzubehör > Druckerzubehör > Drucker-Verbrauchsmaterial > Toner- & Inkjet-Kartuschen","new","Nrg","schwarz","http://www.druckerpatronen.de/products_images/dummies/dummie_big_toner_schwarz.png","http://www.druckerpatronen.de/alternativ-toner-schwarz-41136sp4.html","4053768161243","270.96","simple","DE:3.90 EUR","Artikel Toner","41136sp4"
"95","Infotec TYPE 245 Toner TYPE245 schwarz Sparset 4x","Günstig Toner schwarz Sparset 4x. Kaufen Sie Alternativ Infotec Patronen TYPE 245 für Infotec C 7425 DN, Infotec C 7425 HDN, Infotec LP 125 CX, Infotec LP 126 C, Infotec LP 126 CX, Infotec Aficio CL 4000 DN, Infotec Aficio CL 4000 HDN, Infotec CLP 26, Infotec CLP 26 DN, Infotec CLP 26 HDN, Infotec CLP 26 N, Infotec Aficio SP C 410 DN, Infotec Aficio SP C 411 DN, Infotec Aficio SP C 420 DN, Infotec SP C 410 DN, Infotec SP C 411 DN, Infotec SP C 420 DN, Infotec IPC 2525, Infotec IPC 3030 DN, Infotec IPC 3030 E, Infotec IPC 3030, Infotec IPC 2525 DN, Infotec IPC 2525 E","In stock","Elektronik > Drucker-, Kopierer-, Scanner- & Faxzubehör > Druckerzubehör > Drucker-Verbrauchsmaterial > Toner- & Inkjet-Kartuschen","new","Infotec","schwarz","http://www.druckerpatronen.de/products_images/dummies/dummie_big_toner_schwarz.png","http://www.druckerpatronen.de/alternativ-toner-schwarz-41132sp4.html","4961311006999","302.96","simple","DE:3.90 EUR","Artikel Toner","41132sp4"
"96","Infotec 841040 Toner 841040 schwarz Sparset 4x","Günstig Toner schwarz Sparset 4x. Kaufen Sie Alternativ Infotec Patronen 841040 für Infotec IS 2325, Infotec Aficio MP 2500 AD, Infotec Aficio MP 2500, Infotec Aficio MP 2500 SP, Infotec MP 2500 SP, Infotec MP 2500, Infotec LD 125, Infotec Aficio MP 2500 LN","In stock","Elektronik > Drucker-, Kopierer-, Scanner- & Faxzubehör > Druckerzubehör > Drucker-Verbrauchsmaterial > Toner- & Inkjet-Kartuschen","new","Infotec","schwarz","http://www.druckerpatronen.de/products_images/dummies/dummie_big_toner_schwarz.png","http://www.druckerpatronen.de/alternativ-toner-schwarz-41131sp4.html","4961311038235","94.96","simple","DE:3.90 EUR","Artikel Toner","41131sp4"
"97","Nashuatec TYPESPC 811 Toner TYPESPC811 schwarz Sparset 4x","Günstig Toner schwarz Sparset 4x. Kaufen Sie Alternativ Nashuatec Patronen TYPESPC 811 für Nashuatec Aficio SP C 811 DN, Nashuatec Aficio SP C 811 Dnha, Nashuatec Aficio SP C 811 DL, Nashuatec SP C 811 Dnha, Nashuatec SP C 811 DN","In stock","Elektronik > Drucker-, Kopierer-, Scanner- & Faxzubehör > Druckerzubehör > Drucker-Verbrauchsmaterial > Toner- & Inkjet-Kartuschen","new","Nashuatec","schwarz","http://www.druckerpatronen.de/products_images/dummies/dummie_big_toner_schwarz.png","http://www.druckerpatronen.de/alternativ-toner-schwarz-41127sp4.html","4053768159158","258.96","simple","DE:3.90 EUR","Artikel Toner","41127sp4"
"98","Ricoh GC-31 HK Tinte Patronen GC31HK schwarz Sparset 4x","Günstig Druckerpatronen schwarz Sparset 4x. Kaufen Sie Alternativ Ricoh Patronen GC-31 HK für Ricoh Aficio GX E 5550 N, Ricoh GX E 5550 N, Ricoh Aficio GX E 7700 N","In stock","Elektronik > Drucker-, Kopierer-, Scanner- & Faxzubehör > Druckerzubehör > Drucker-Verbrauchsmaterial > Toner- & Inkjet-Kartuschen","new","Ricoh","schwarz","http://www.druckerpatronen.de/products_images/dummies/dummie_big_druckerpatrone_schwarz.png","http://www.druckerpatronen.de/alternativ-gelkartusche-schwarz-41123sp4.html","4961311856112","62.68","simple","DE:3.90 EUR","Artikel Druckerpatrone","41123sp4"
"99","Nrg GC-21 K Tinte Patronen GC21K schwarz Sparset 4x","Günstig Druckerpatronen schwarz Sparset 4x. Kaufen Sie Alternativ Nrg Patronen GC-21 K für Nrg Gelsprinter GX 2500, Nrg Gelsprinter GX 3000, Nrg Gelsprinter GX 3000 S, Nrg Gelsprinter GX 3000 SF, Nrg Gelsprinter GX 3000 SFN, Nrg Gelsprinter GX 3050 N, Nrg Gelsprinter GX 5050 N, Nrg Gelsprinter GX 7000, Nrg Aficio GX 2500, Nrg Aficio GX 3000, Nrg Aficio GX 3000 S, Nrg Aficio GX 3000 SF, Nrg Aficio GX 3000 SFN, Nrg Aficio GX 3050 N, Nrg Aficio GX 3050 SFN, Nrg Aficio GX 5050 N, Nrg Aficio GX 7000, Nrg Gelsprinter GX 3050 SFN, Nrg GX 7000, Nrg 405532","In stock","Elektronik > Drucker-, Kopierer-, Scanner- & Faxzubehör > Druckerzubehör > Drucker-Verbrauchsmaterial > Toner- & Inkjet-Kartuschen","new","Nrg","schwarz","http://www.druckerpatronen.de/products_images/dummies/dummie_big_druckerpatrone_schwarz.png","http://www.druckerpatronen.de/alternativ-gelkartusche-schwarz-41119sp4.html","4961311022050","66.6","simple","DE:3.90 EUR","Artikel Druckerpatrone","41119sp4"
"100","Panasonic FQTK20 Toner FQTK20 schwarz Sparset 4x","Günstig Toner schwarz Sparset 4x. Kaufen Sie Alternativ Panasonic Patronen FQTK20 für Panasonic C 420, Panasonic C 285, Panasonic C 500, Panasonic FP 7735 DC, Panasonic FP 7735, Panasonic FP 7728 DC, Panasonic FP 7728, Panasonic C 355, Panasonic FP 7742, Panasonic FP 7750, Panasonic C 360, Panasonic FP 7830 DC, Panasonic FP 7850, Panasonic FP 7845, Panasonic FP 7835, Panasonic FP 7835 D, Panasonic FP 7830 D, Panasonic FP 7835 DC, Panasonic FP 7830, Panasonic FQTK20","In stock","Elektronik > Drucker-, Kopierer-, Scanner- & Faxzubehör > Druckerzubehör > Drucker-Verbrauchsmaterial > Toner- & Inkjet-Kartuschen","new","Panasonic","schwarz","http://www.druckerpatronen.de/products_images/dummies/dummie_big_toner_schwarz.png","http://www.druckerpatronen.de/alternativ-toner-schwarz-41118sp4.html","4053768154719","138.96","simple","DE:3.90 EUR","Artikel Toner","41118sp4"
"101","Panasonic DQ-TU 15 E Toner DQTU15E schwarz Sparset 4x","Günstig Toner schwarz Sparset 4x. Kaufen Sie Alternativ Panasonic Patronen DQ-TU 15 E für Panasonic Workio DP 2310, Panasonic Workio DP 3010, Panasonic Workio DP 3030, Panasonic Workio DP 2330, Panasonic Workio DP 8032, Panasonic Workio DP 8025, Panasonic DQ-TU 15 E","In stock","Elektronik > Drucker-, Kopierer-, Scanner- & Faxzubehör > Druckerzubehör > Drucker-Verbrauchsmaterial > Toner- & Inkjet-Kartuschen","new","Panasonic","schwarz","http://www.druckerpatronen.de/products_images/dummies/dummie_big_toner_schwarz.png","http://www.druckerpatronen.de/alternativ-toner-schwarz-41117sp4.html","4053768153118","166.96","simple","DE:3.90 EUR","Artikel Toner","41117sp4"
